…
``` r
samp_SEs %>% t %>% as.data.frame %>%
  pivot_longer(everything(), names_to = "estimates", values_to = "value") %>%
  group_by(estimates) %>%
  summarize(lower = quantile(value,.025), upper = quantile(value,.975))
```

    ## # A tibble: 25 x 3
    ##    estimates        lower     upper
    ##    <chr>            <dbl>     <dbl>
    ##  1 (Intercept)  -0.0254   -0.0254  
    ##  2 `FPKM(F)`     0.000424  0.000424
    ##  3 Chromosome10  0.00804   0.00804 
    ##  4 Chromosome11  0.00938   0.00938 
    ##  5 Chromosome12 -0.0303   -0.0303  
    ##  6 Chromosome13 -0.0140   -0.0140  
    ##  7 Chromosome14 -0.0178   -0.0178  
    ##  8 Chromosome15  0.00495   0.00495 
    ##  9 Chromosome16 -0.0274   -0.0274  
    ## 10 Chromosome17 -0.0205   -0.0205  
    ## # … with 15 more rows
…
